! Kilobolt Studios
! http://kilobolt.com
! Game Development Tutorial - Unit 3
! Q-Bot Level 1
! # = Tile Legend 
! 5 = TileDirt
! 8 = GrassTop
! 2 = GrassBot
! 4 = GrassLeft
! 6 = GrassRight 
22222222222222222222222222222222222225555555555555555552222222222222222222222222222222222222222222222222222222222222222222222222222222222222222222222222222222222222222222222222222222222222222222222222222222222222222222222222222222222222222222222222222222222222222222222222222222222222222222222222222
                                     555555555555555555
                                     222222222222222222
                                                                                                                                             8
                                                                                                                                            85
                                                                                                                                           8558  
                                        888888888888                                                                                  88888555588888
                                     88855555555555588                                                                               8555555555555558
                                     55555555555555555888                                                                           855555555555555558
                                   8855555555555555555555                                                                          85555555555555555558
                                   5555555555555555555555                                                                         8555555555555555555558 
888888888888888888888888    88888885555555555555555555555888888888888888888   88    88  88   88   88   888   88   88888888888888885555555555555555555555888888888888888888888888888888888888888888888888888888888888888888888888888888888888888888888888888888888888888888888888888899999999999999999999999