! Kilobolt Studios
! http://kilobolt.com
! Game Development Tutorial - Unit 3
! Q-Bot Level 2
! # = Tile Legend 
! 5 = TileDirt
! 8 = GrassTop
! 2 = GrassBot
! 4 = GrassLeft
! 6 = GrassRight 
22222222222222222222222222222222222225555555555555555552222222222222222222222222222222222222222222222222222222222222222222222222222222222222222222222222222222222222222222222222222222222222222222222222222222222222222222222222222222222222222222255552222222222222222222222222222222222222222222222222222
                                     555555555555555555                                                                                                                                                                                            5555
                                     222222222222222222                                                                                                                                                                                            2555
                                                                                                                                             8                                                                                                      555
                                                                                                                                            85                                                                                          8           552
                                                                                                                                           8558                                                                                       885           22
                                        88888   8888                                                                                  88888555588888                                                                                88555
                                     88855555   555588                                                                               8555555555555558                                                                              855555
                                     55555555888555555888                                                                           855555555555555558                                                                            8555555
                                   8855555555555555555555                                                                          85555555555555555558                                        888                              885555555           8
                                   5555555555555555555555                                                                         8555555555555555555558                                      85558         8888               8555555555          858              8888
888888888888888888888888    88888885555555555555555555555888888888888888888   88    88  88   88   88   888   88   88888888888888885555555555555555555555888888888888  8888888  888888  88  888555558888  888555588888888888888855555555558888  8888555888888   88888555588888888888899999999999999999999999